7.500000e-01 7.561518e-183 0.000000e+00
1.250000e+00 4.850712e-166 0.000000e+00
1.750000e+00 3.938065e-155 0.000000e+00
2.250000e+00 5.697393e-147 0.000000e+00
2.750000e+00 1.862488e-140 0.000000e+00
3.250000e+00 7.092143e-135 0.000000e+00
3.750000e+00 3.114480e-130 0.000000e+00
4.250000e+00 3.372727e-126 0.000000e+00
4.750000e+00 1.317033e-122 0.000000e+00
5.250000e+00 1.854520e-119 0.000000e+00
5.750000e+00 2.611359e-116 0.000000e+00
6.250000e+00 1.652213e-113 0.000000e+00
6.750000e+00 5.512098e-111 0.000000e+00
7.250000e+00 7.627614e-109 0.000000e+00
7.750000e+00 8.386346e-107 0.000000e+00
8.250000e+00 1.148951e-104 0.000000e+00
8.750000e+00 1.055146e-102 0.000000e+00
9.250000e+00 8.680632e-101 0.000000e+00
9.750000e+00 4.553628e-99 0.000000e+00
1.025000e+01 1.649965e-97 0.000000e+00
1.075000e+01 5.801804e-96 0.000000e+00
1.125000e+01 1.827591e-94 0.000000e+00
1.175000e+01 4.264878e-93 0.000000e+00
1.225000e+01 9.755474e-92 0.000000e+00
1.275000e+01 2.322533e-90 0.000000e+00
1.325000e+01 4.096256e-89 0.000000e+00
1.375000e+01 5.683051e-88 0.000000e+00
1.425000e+01 8.043812e-87 0.000000e+00
1.475000e+01 1.283683e-85 0.000000e+00
1.525000e+01 1.694094e-84 0.000000e+00
1.575000e+01 1.689720e-83 0.000000e+00
1.625000e+01 1.479905e-82 0.000000e+00
1.675000e+01 1.362597e-81 0.000000e+00
1.725000e+01 1.318912e-80 0.000000e+00
1.775000e+01 1.166750e-79 0.000000e+00
1.825000e+01 8.973020e-79 0.000000e+00
1.875000e+01 6.498928e-78 0.000000e+00
1.925000e+01 4.998072e-77 0.000000e+00
1.975000e+01 4.000691e-76 0.000000e+00
2.025000e+01 2.985843e-75 0.000000e+00
2.075000e+01 1.937303e-74 0.000000e+00
2.125000e+01 1.103748e-73 0.000000e+00
2.175000e+01 5.747194e-73 0.000000e+00
2.225000e+01 2.962776e-72 0.000000e+00
2.275000e+01 1.542712e-71 0.000000e+00
2.325000e+01 7.952939e-71 0.000000e+00
2.375000e+01 3.899922e-70 0.000000e+00
2.425000e+01 1.874555e-69 0.000000e+00
2.475000e+01 8.831911e-69 0.000000e+00
2.525000e+01 3.958188e-68 0.000000e+00
2.575000e+01 1.687421e-67 0.000000e+00
2.625000e+01 6.842829e-67 0.000000e+00
2.675000e+01 2.692893e-66 0.000000e+00
2.725000e+01 1.038763e-65 0.000000e+00
2.775000e+01 3.927610e-65 0.000000e+00
2.825000e+01 1.470270e-64 0.000000e+00
2.875000e+01 5.503840e-64 0.000000e+00
2.925000e+01 2.081026e-63 0.000000e+00
2.975000e+01 7.712642e-63 0.000000e+00
3.025000e+01 2.858439e-62 0.000000e+00
3.075000e+01 1.070034e-61 0.000000e+00
3.125000e+01 3.965733e-61 0.000000e+00
3.175000e+01 1.440666e-60 0.000000e+00
3.225000e+01 4.879807e-60 0.000000e+00
3.275000e+01 1.541137e-59 0.000000e+00
3.325000e+01 4.538155e-59 0.000000e+00
3.375000e+01 1.271167e-58 0.000000e+00
3.425000e+01 3.421009e-58 0.000000e+00
3.475000e+01 9.115127e-58 0.000000e+00
3.525000e+01 2.404520e-57 0.000000e+00
3.575000e+01 6.406738e-57 0.000000e+00
3.625000e+01 1.724204e-56 0.000000e+00
3.675000e+01 4.733975e-56 0.000000e+00
3.725000e+01 1.326018e-55 0.000000e+00
3.775000e+01 3.751591e-55 0.000000e+00
3.825000e+01 1.061407e-54 0.000000e+00
3.875000e+01 3.063613e-54 0.000000e+00
3.925000e+01 8.931595e-54 0.000000e+00
3.975000e+01 2.603899e-53 0.000000e+00
4.025000e+01 7.366995e-53 0.000000e+00
4.075000e+01 1.982631e-52 0.000000e+00
4.125000e+01 5.075499e-52 0.000000e+00
4.175000e+01 1.235950e-51 0.000000e+00
4.225000e+01 2.920748e-51 0.000000e+00
4.275000e+01 6.631558e-51 0.000000e+00
4.325000e+01 1.475880e-50 0.000000e+00
4.375000e+01 3.219592e-50 0.000000e+00
4.425000e+01 6.953566e-50 0.000000e+00
4.475000e+01 1.486865e-49 0.000000e+00
4.525000e+01 3.179327e-49 0.000000e+00
4.575000e+01 6.935614e-49 0.000000e+00
4.625000e+01 1.528191e-48 0.000000e+00
4.675000e+01 3.401051e-48 0.000000e+00
4.725000e+01 7.722085e-48 0.000000e+00
4.775000e+01 1.770920e-47 0.000000e+00
4.825000e+01 4.143328e-47 0.000000e+00
4.875000e+01 9.889755e-47 0.000000e+00
4.925000e+01 2.360596e-46 0.000000e+00
4.975000e+01 5.634533e-46 0.000000e+00
5.025000e+01 1.305165e-45 0.000000e+00
5.075000e+01 2.875795e-45 0.000000e+00
5.125000e+01 6.088058e-45 0.000000e+00
5.175000e+01 1.238306e-44 0.000000e+00
5.225000e+01 2.419943e-44 0.000000e+00
5.275000e+01 4.682088e-44 0.000000e+00
5.325000e+01 8.791137e-44 0.000000e+00
5.375000e+01 1.650633e-43 0.000000e+00
5.425000e+01 3.068408e-43 0.000000e+00
5.475000e+01 5.703950e-43 0.000000e+00
5.525000e+01 1.060323e-42 0.000000e+00
5.575000e+01 1.990874e-42 0.000000e+00
5.625000e+01 3.775655e-42 0.000000e+00
5.675000e+01 7.160458e-42 0.000000e+00
5.725000e+01 1.371615e-41 0.000000e+00
5.775000e+01 2.653790e-41 0.000000e+00
5.825000e+01 5.186135e-41 0.000000e+00
5.875000e+01 1.023680e-40 0.000000e+00
5.925000e+01 2.040926e-40 0.000000e+00
5.975000e+01 4.109921e-40 0.000000e+00
6.025000e+01 8.194013e-40 0.000000e+00
6.075000e+01 1.633653e-39 0.000000e+00
6.125000e+01 3.224631e-39 0.000000e+00
6.175000e+01 6.238992e-39 0.000000e+00
6.225000e+01 1.183213e-38 0.000000e+00
6.275000e+01 2.199508e-38 0.000000e+00
6.325000e+01 3.967886e-38 0.000000e+00
6.375000e+01 7.086797e-38 0.000000e+00
6.425000e+01 1.240666e-37 0.000000e+00
6.475000e+01 2.128992e-37 0.000000e+00
6.525000e+01 3.653364e-37 0.000000e+00
6.575000e+01 6.206818e-37 0.000000e+00
6.625000e+01 1.044004e-36 0.000000e+00
6.675000e+01 1.738571e-36 0.000000e+00
6.725000e+01 2.895227e-36 0.000000e+00
6.775000e+01 4.869851e-36 0.000000e+00
6.825000e+01 8.109720e-36 0.000000e+00
6.875000e+01 1.364077e-35 0.000000e+00
6.925000e+01 2.294416e-35 0.000000e+00
6.975000e+01 3.898057e-35 0.000000e+00
7.025000e+01 6.689093e-35 0.000000e+00
7.075000e+01 1.159389e-34 0.000000e+00
7.125000e+01 2.009515e-34 0.000000e+00
7.175000e+01 3.518002e-34 0.000000e+00
7.225000e+01 6.220767e-34 0.000000e+00
7.275000e+01 1.099998e-33 0.000000e+00
7.325000e+01 1.945090e-33 0.000000e+00
7.375000e+01 3.405215e-33 0.000000e+00
7.425000e+01 5.961416e-33 0.000000e+00
7.475000e+01 1.012804e-32 0.000000e+00
7.525000e+01 1.703565e-32 0.000000e+00
7.575000e+01 2.808703e-32 0.000000e+00
7.625000e+01 4.584692e-32 0.000000e+00
7.675000e+01 7.335481e-32 0.000000e+00
7.725000e+01 1.161994e-31 0.000000e+00
7.775000e+01 1.840685e-31 0.000000e+00
7.825000e+01 2.858045e-31 0.000000e+00
7.875000e+01 4.482307e-31 0.000000e+00
7.925000e+01 6.959711e-31 0.000000e+00
7.975000e+01 1.069887e-30 0.000000e+00
8.025000e+01 1.661221e-30 0.000000e+00
8.075000e+01 2.553724e-30 0.000000e+00
8.125000e+01 3.965186e-30 0.000000e+00
8.175000e+01 6.156773e-30 0.000000e+00
8.225000e+01 9.559666e-30 0.000000e+00
8.275000e+01 1.499254e-29 0.000000e+00
8.325000e+01 2.351298e-29 0.000000e+00
8.375000e+01 3.724631e-29 0.000000e+00
8.425000e+01 5.900091e-29 0.000000e+00
8.475000e+01 9.534985e-29 0.000000e+00
8.525000e+01 1.540925e-28 0.000000e+00
8.575000e+01 2.515276e-28 0.000000e+00
8.625000e+01 4.105726e-28 0.000000e+00
8.675000e+01 6.769198e-28 0.000000e+00
8.725000e+01 1.104947e-27 0.000000e+00
8.775000e+01 1.785677e-27 0.000000e+00
8.825000e+01 2.857073e-27 0.000000e+00
8.875000e+01 4.480782e-27 0.000000e+00
8.925000e+01 6.957342e-27 0.000000e+00
8.975000e+01 1.058881e-26 0.000000e+00
9.025000e+01 1.579664e-26 0.000000e+00
9.075000e+01 2.333134e-26 0.000000e+00
9.125000e+01 3.377759e-26 0.000000e+00
9.175000e+01 4.890098e-26 0.000000e+00
9.225000e+01 7.009122e-26 0.000000e+00
9.275000e+01 1.004638e-25 0.000000e+00
9.325000e+01 1.425649e-25 0.000000e+00
9.375000e+01 2.023093e-25 0.000000e+00
9.425000e+01 2.870905e-25 0.000000e+00
9.475000e+01 4.074008e-25 0.000000e+00
9.525000e+01 5.839396e-25 0.000000e+00
9.575000e+01 8.286497e-25 0.000000e+00
9.625000e+01 1.187728e-24 0.000000e+00
9.675000e+01 1.719515e-24 0.000000e+00
9.725000e+01 2.464631e-24 0.000000e+00
9.775000e+01 3.568132e-24 0.000000e+00
9.825000e+01 5.165708e-24 0.000000e+00
9.875000e+01 7.553736e-24 0.000000e+00
9.925000e+01 1.104571e-23 0.000000e+00
9.975000e+01 1.615197e-23 0.000000e+00
1.002500e+02 2.385615e-23 0.000000e+00
1.007500e+02 3.558920e-23 0.000000e+00
1.012500e+02 5.362644e-23 0.000000e+00
1.017500e+02 8.080527e-23 0.000000e+00
1.022500e+02 1.242185e-22 0.000000e+00
1.027500e+02 1.909558e-22 0.000000e+00
1.032500e+02 2.994784e-22 0.000000e+00
1.037500e+02 4.696756e-22 0.000000e+00
1.042500e+02 7.365980e-22 0.000000e+00
1.047500e+02 1.143721e-21 0.000000e+00
1.052500e+02 1.758194e-21 0.000000e+00
1.057500e+02 2.649277e-21 0.000000e+00
1.062500e+02 3.873998e-21 0.000000e+00
1.067500e+02 5.608520e-21 0.000000e+00
1.072500e+02 7.958869e-21 0.000000e+00
1.077500e+02 1.107053e-20 0.000000e+00
1.082500e+02 1.509384e-20 0.000000e+00
1.087500e+02 2.057933e-20 0.000000e+00
1.092500e+02 2.777918e-20 0.000000e+00
1.097500e+02 3.712486e-20 0.000000e+00
1.102500e+02 4.912102e-20 0.000000e+00
1.107500e+02 6.499348e-20 0.000000e+00
1.112500e+02 8.599481e-20 0.000000e+00
1.117500e+02 1.137823e-19 0.000000e+00
1.122500e+02 1.490508e-19 0.000000e+00
1.127500e+02 1.972135e-19 0.000000e+00
1.132500e+02 2.583427e-19 0.000000e+00
1.137500e+02 3.418209e-19 0.000000e+00
1.142500e+02 4.522734e-19 0.000000e+00
1.147500e+02 6.044307e-19 0.000000e+00
1.152500e+02 7.997402e-19 0.000000e+00
1.157500e+02 1.068795e-18 0.000000e+00
1.162500e+02 1.442722e-18 0.000000e+00
1.167500e+02 1.947471e-18 0.000000e+00
1.172500e+02 2.628811e-18 0.000000e+00
1.177500e+02 3.584187e-18 0.000000e+00
1.182500e+02 4.886771e-18 0.000000e+00
1.187500e+02 6.729707e-18 0.000000e+00
1.192500e+02 9.360809e-18 0.000000e+00
1.197500e+02 1.315145e-17 0.000000e+00
1.202500e+02 1.847709e-17 0.000000e+00
1.207500e+02 2.648376e-17 0.000000e+00
1.212500e+02 3.795995e-17 0.000000e+00
1.217500e+02 5.550825e-17 0.000000e+00
1.222500e+02 8.198462e-17 0.000000e+00
1.227500e+02 1.235359e-16 0.000000e+00
1.232500e+02 1.842939e-16 0.000000e+00
1.237500e+02 2.776973e-16 0.000000e+00
1.242500e+02 4.142757e-16 0.000000e+00
1.247500e+02 6.057890e-16 0.000000e+00
1.252500e+02 8.682951e-16 0.000000e+00
1.257500e+02 1.219909e-15 0.000000e+00
1.262500e+02 1.679971e-15 0.000000e+00
1.267500e+02 2.290514e-15 0.000000e+00
1.272500e+02 3.061106e-15 0.000000e+00
1.277500e+02 4.009940e-15 0.000000e+00
1.282500e+02 5.252879e-15 0.000000e+00
1.287500e+02 6.812617e-15 0.000000e+00
1.292500e+02 8.747574e-15 0.000000e+00
1.297500e+02 1.123211e-14 0.000000e+00
1.302500e+02 1.427881e-14 0.000000e+00
1.307500e+02 1.815192e-14 0.000000e+00
1.312500e+02 2.307561e-14 0.000000e+00
1.317500e+02 2.904297e-14 0.000000e+00
1.322500e+02 3.655348e-14 0.000000e+00
1.327500e+02 4.646858e-14 0.000000e+00
1.332500e+02 5.848536e-14 0.000000e+00
1.337500e+02 7.360967e-14 0.000000e+00
1.342500e+02 9.264513e-14 0.000000e+00
1.347500e+02 1.166032e-13 0.000000e+00
1.352500e+02 1.467567e-13 0.000000e+00
1.357500e+02 1.865644e-13 0.000000e+00
1.362500e+02 2.348099e-13 0.000000e+00
1.367500e+02 2.985019e-13 0.000000e+00
1.372500e+02 3.794703e-13 0.000000e+00
1.377500e+02 4.824013e-13 0.000000e+00
1.382500e+02 6.132523e-13 0.000000e+00
1.387500e+02 7.874315e-13 0.000000e+00
1.392500e+02 1.011082e-12 0.000000e+00
1.397500e+02 1.311303e-12 0.000000e+00
1.402500e+02 1.717760e-12 0.000000e+00
1.407500e+02 2.250205e-12 0.000000e+00
1.412500e+02 3.007235e-12 0.000000e+00
1.417500e+02 4.018952e-12 0.000000e+00
1.422500e+02 5.479540e-12 0.000000e+00
1.427500e+02 7.546026e-12 0.000000e+00
1.432500e+02 1.060177e-11 0.000000e+00
1.437500e+02 1.519583e-11 0.000000e+00
1.442500e+02 2.199953e-11 0.000000e+00
1.447500e+02 3.249288e-11 0.000000e+00
1.452500e+02 4.799137e-11 0.000000e+00
1.457500e+02 6.947876e-11 0.000000e+00
1.462500e+02 9.859506e-11 0.000000e+00
1.467500e+02 1.371426e-10 0.000000e+00
1.472500e+02 1.869836e-10 0.000000e+00
1.477500e+02 2.474036e-10 0.000000e+00
1.482500e+02 3.208652e-10 0.000000e+00
1.487500e+02 4.119991e-10 0.000000e+00
1.492500e+02 5.185420e-10 0.000000e+00
1.497500e+02 6.526370e-10 0.000000e+00
1.502500e+02 8.051440e-10 0.000000e+00
1.507500e+02 9.932885e-10 0.000000e+00
1.512500e+02 1.213205e-09 0.000000e+00
1.517500e+02 1.481812e-09 0.000000e+00
1.522500e+02 1.809890e-09 0.000000e+00
1.527500e+02 2.188608e-09 0.000000e+00
1.532500e+02 2.646574e-09 0.000000e+00
1.537500e+02 3.200368e-09 0.000000e+00
1.542500e+02 3.831536e-09 0.000000e+00
1.547500e+02 4.633284e-09 0.000000e+00
1.552500e+02 5.547048e-09 0.000000e+00
1.557500e+02 6.707765e-09 0.000000e+00
1.562500e+02 8.111362e-09 0.000000e+00
1.567500e+02 9.711064e-09 0.000000e+00
1.572500e+02 1.174310e-08 0.000000e+00
1.577500e+02 1.420034e-08 0.000000e+00
1.582500e+02 1.717175e-08 0.000000e+00
1.587500e+02 2.076494e-08 0.000000e+00
1.592500e+02 2.510999e-08 0.000000e+00
1.597500e+02 3.066941e-08 0.000000e+00
1.602500e+02 3.708698e-08 0.000000e+00
1.607500e+02 4.529813e-08 0.000000e+00
1.612500e+02 5.532727e-08 0.000000e+00
1.617500e+02 6.757687e-08 0.000000e+00
1.622500e+02 8.336811e-08 0.000000e+00
1.627500e+02 1.028494e-07 0.000000e+00
1.632500e+02 1.268831e-07 0.000000e+00
1.637500e+02 1.581060e-07 0.000000e+00
1.642500e+02 1.970122e-07 0.000000e+00
1.647500e+02 2.479596e-07 0.000000e+00
1.652500e+02 3.152184e-07 0.000000e+00
1.657500e+02 4.047485e-07 0.000000e+00
1.662500e+02 5.249305e-07 0.000000e+00
1.667500e+02 6.945512e-07 0.000000e+00
1.672500e+02 9.469685e-07 0.000000e+00
1.677500e+02 1.330441e-06 0.000000e+00
1.682500e+02 1.945484e-06 0.000000e+00
1.687500e+02 3.020766e-06 0.000000e+00
1.692500e+02 4.980402e-06 0.000000e+00
1.697500e+02 8.211294e-06 0.000000e+00
1.702500e+02 1.274974e-05 0.000000e+00
1.707500e+02 1.845823e-05 0.000000e+00
1.712500e+02 2.541935e-05 0.000000e+00
1.717500e+02 3.329844e-05 0.000000e+00
1.722500e+02 4.233061e-05 0.000000e+00
1.727500e+02 5.274719e-05 0.000000e+00
1.732500e+02 6.507305e-05 0.000000e+00
1.737500e+02 7.868957e-05 0.000000e+00
1.742500e+02 9.420851e-05 0.000000e+00
1.747500e+02 1.127881e-04 0.000000e+00
1.752500e+02 1.323580e-04 0.000000e+00
1.757500e+02 1.568846e-04 0.000000e+00
1.762500e+02 1.822739e-04 0.000000e+00
1.767500e+02 2.139004e-04 0.000000e+00
1.772500e+02 2.485168e-04 0.000000e+00
1.777500e+02 2.887354e-04 0.000000e+00
1.782500e+02 3.354626e-04 0.000000e+00
1.787500e+02 3.858739e-04 0.000000e+00
1.792500e+02 4.438606e-04 0.000000e+00
1.797500e+02 5.156924e-04 0.000000e+00
1.802500e+02 5.931875e-04 0.000000e+00
1.807500e+02 6.823281e-04 0.000000e+00
1.812500e+02 7.848641e-04 0.000000e+00
1.817500e+02 9.028086e-04 0.000000e+00
1.822500e+02 1.038477e-03 0.000000e+00
1.827500e+02 1.182647e-03 0.000000e+00
1.832500e+02 1.360368e-03 0.000000e+00
1.837500e+02 1.564796e-03 0.000000e+00
1.842500e+02 1.799944e-03 0.000000e+00
1.847500e+02 2.049827e-03 0.000000e+00
1.852500e+02 2.357862e-03 0.000000e+00
1.857500e+02 2.712187e-03 0.000000e+00
1.862500e+02 3.088715e-03 0.000000e+00
1.867500e+02 3.552868e-03 0.000000e+00
1.872500e+02 4.046107e-03 0.000000e+00
1.877500e+02 4.654131e-03 0.000000e+00
1.882500e+02 5.353525e-03 0.000000e+00
1.887500e+02 6.096747e-03 0.000000e+00
1.892500e+02 7.012928e-03 0.000000e+00
1.897500e+02 7.986521e-03 0.000000e+00
1.902500e+02 9.186686e-03 0.000000e+00
1.907500e+02 1.056720e-02 0.000000e+00
1.912500e+02 1.215518e-02 0.000000e+00
1.917500e+02 1.398178e-02 0.000000e+00
1.922500e+02 1.608288e-02 0.000000e+00
1.927500e+02 1.849971e-02 0.000000e+00
1.932500e+02 2.127974e-02 0.000000e+00
1.937500e+02 2.472353e-02 0.000000e+00
1.942500e+02 2.843882e-02 0.000000e+00
1.947500e+02 3.337327e-02 0.000000e+00
1.952500e+02 3.877421e-02 0.000000e+00
1.957500e+02 4.550195e-02 0.000000e+00
1.962500e+02 5.393369e-02 0.000000e+00
1.967500e+02 6.392786e-02 0.000000e+00
1.972500e+02 7.730474e-02 0.000000e+00
1.977500e+02 9.442022e-02 0.000000e+00
1.982500e+02 1.188373e-01 0.000000e+00
1.987500e+02 1.541237e-01 0.000000e+00
1.992500e+02 2.122480e-01 0.000000e+00
1.997500e+02 3.499377e-01 0.000000e+00
2.002500e+02 0.000000e+00 0.000000e+00
